[Wed, 02 Dec 15 10:49:43 -0430][ERROR] Duplicate entry 'arturoruggiero@gmail.com' for key 3 al ejecutar <em>"INSERT INTO user (name,username,email,password,usertype,block) VALUES ('Arturo Jose Ruggiero Marcano','Aruggiero','arturoruggiero@gmail.com','081d0056afefd0962e84f2100f474591:1TYQUj6PNXuV80TlcfY0Ff7q64rED0AS','user',0)"</em>
[Wed, 02 Dec 15 13:35:34 -0430][ERROR] Duplicate entry 'fabio' for key 2 al ejecutar <em>"INSERT INTO user (name,username,email,password,usertype,block) VALUES ('fabio valente','fabio','fabioantoniovalente@gmail.com','3fbe0fccbaefa35805a4e6c090ca202a:usAX4SrZ6VLahjvtSpHDoUdV4Kf7MyTh','user',0)"</em>
[Wed, 02 Dec 15 13:53:56 -0430][ERROR] Duplicate entry 'fabio' for key 2 al ejecutar <em>"INSERT INTO user (name,username,email,password,usertype,block) VALUES ('fabio valente','fabio','fabioantoniovalente@gmail.com','26be2e5736677eef6e05cb373d100999:hFTRvfHFcYIIB6Dux4pOkIvKvoRUAN65','user',0)"</em>
