[Wed, 01 Feb 17 16:13:15 -0400][ERROR] Duplicate entry 'kevin.san3@gmail.com' for key 3 al ejecutar <em>"INSERT INTO user (name,username,email,password,usertype,block) VALUES ('kevin santana','kevinxsmel','kevin.san3@gmail.com','b474b17412808b243285bd4e226f4ce6:4vQYT46mpLmeN3GAIs3GrBpGSFhQaGPz','user',0)"</em>
[Wed, 01 Feb 17 17:45:26 -0400][ERROR] Duplicate entry 'ivaniela17@hotmail.com' for key 3 al ejecutar <em>"INSERT INTO user (name,username,email,password,usertype,block) VALUES ('jose daniel  amador ','amadore17','ivaniela17@hotmail.com','1b191a578037f86f86712282d4d00eb3:T44GxdY4pz1krzWQ3m7ZIQYpwTOCkzue','user',0)"</em>
[Wed, 01 Feb 17 21:58:22 -0400][ERROR] Duplicate entry 'Rgy87' for key 2 al ejecutar <em>"INSERT INTO user (name,username,email,password,usertype,block) VALUES ('Rafael Enrique Gutierrez Yepez','Rgy87','Rafael.gutierrez87@hotmail.com','990741ae7383e2966b606cea964e2518:QS0Rhof5wxyjLiaQhL8ohZZwXsfGtSqE','user',0)"</em>
