[Sat, 04 Feb 17 10:17:13 -0400][ERROR] Duplicate entry 'jorge' for key 2 al ejecutar <em>"INSERT INTO user (name,username,email,password,usertype,block) VALUES ('jorge lugo','jorge','lugodye@msn.com','04ec9fdcdc47eb6a1be8f60e4dea1656:yMGtQVTFU9WJprY1xVAqW22xqpI26hgw','user',0)"</em>
[Sat, 04 Feb 17 11:59:12 -0400][ERROR] Duplicate entry 'moises9009@hotmail.com' for key 3 al ejecutar <em>"INSERT INTO user (name,username,email,password,usertype,block) VALUES ('moises torres','moisesalet22','moises9009@hotmail.com','c471080547460bbc7eaa7d4e795c2934:uqFpwhBpl1dvvy4A6OU3c4R9KvwJjbXu','user',0)"</em>
[Sat, 04 Feb 17 16:30:26 -0400][ERROR] Duplicate entry 'josealej14' for key 2 al ejecutar <em>"INSERT INTO user (name,username,email,password,usertype,block) VALUES ('Jose Rodriguez','josealej14','josealej14@hotmail.com','53e9bc426c630ecf57b9ac93b79bc268:bGmUvxxlKOnD4QfPjjeeyk1LWzK2H5OR','user',0)"</em>
