[Thu, 02 Jul 15 09:51:34 -0430][ERROR] Duplicate entry 'IJAC25' for key 2 al ejecutar <em>"INSERT INTO user (name,username,email,password,usertype,block) VALUES ('Ignacio Andrade','IJAC25','ijac25@gmail.com','42accfe3400fc77d5bfc4f13bf190530:RiA2rLD7TCRCjUIWbci5hTzvxPg7NQYA','user',0)"</em>
[Thu, 02 Jul 15 12:44:34 -0430][ERROR] Duplicate entry 'sahir' for key 2 al ejecutar <em>"INSERT INTO user (name,username,email,password,usertype,block) VALUES ('sahir Enrique Reyes Ropero','sahir','sahir.reyes@gmail.com','a50745b33a594895327faba8b34fa2f2:WLG39M0okFA3k3mJAAN8ihYukHeCx7Vf','user',0)"</em>
[Thu, 02 Jul 15 15:31:23 -0430][ERROR] Duplicate entry 'lisethlote' for key 2 al ejecutar <em>"INSERT INTO user (name,username,email,password,usertype,block) VALUES ('Lisethlote Moreno Pineda','lisethlote','lisethlote@hotmail.com','181f8465c24dbf5afaa2203f31ce75dd:FKiUYxR7lXTLtogfKK4wr94RFfwlGgEc','user',0)"</em>
