[Mon, 08 Sep 14 15:03:05 -0430][ERROR] Duplicate entry 'sajidlopez@yahoo.com' for key 3 al ejecutar <em>"INSERT INTO user (name,username,email,password,usertype,block) VALUES (' sajid lopez','sajid25','sajidlopez@yahoo.com','63fec735011c2af4e07799c8fa7c81f5:v9Ei5DQWqOPpsg1GKH9Ley0ZjN8cVWhW','user',0)"</em>
[Mon, 08 Sep 14 15:05:38 -0430][ERROR] Duplicate entry 'sajidlopez@yahoo.com' for key 3 al ejecutar <em>"INSERT INTO user (name,username,email,password,usertype,block) VALUES (' sajid lopez','sajid_25','sajidlopez@yahoo.com','c080b710ade0ebc354e111cc9fc5efc5:ak1VFypGZLr1hnIeEgYA7cgDVtjyNPrE','user',0)"</em>
[Mon, 08 Sep 14 15:10:53 -0430][ERROR] Duplicate entry 'sajidlopez@yahoo.com' for key 3 al ejecutar <em>"INSERT INTO user (name,username,email,password,usertype,block) VALUES ('restoven de venezuela','restovendevenezuela','sajidlopez@yahoo.com','740965da5bd296268db2ba557eb5880b:g1gNn3s47vTacirFONIA34WJoVvpbUNt','user',0)"</em>
