[Tue, 19 Aug 14 11:32:22 -0430][ERROR] Duplicate entry 'erroly' for key 2 al ejecutar <em>"INSERT INTO user (name,username,email,password,usertype,block) VALUES ('ERROL AUGUSTO IRAUSQUIN BRICENO','erroly','erroly@gmail.com','f2f181eac818a861008c9056115f94c3:6x6OfsIUnIB25u4mszdMFVLAOrXVxQTm','user',0)"</em>
[Tue, 19 Aug 14 11:41:02 -0430][ERROR] Duplicate entry 'erroly' for key 2 al ejecutar <em>"INSERT INTO user (name,username,email,password,usertype,block) VALUES ('ERROL AUGUSTO IRAUSQUIN BRICENO','erroly','erroly@gmail.com','fbe37d0e8317d10bb0bce8765369ab67:foVUmYzR1juRpD6tMUgEvKqKqGvYDCRo','user',0)"</em>
[Tue, 19 Aug 14 11:42:23 -0430][ERROR] Duplicate entry 'erroly' for key 2 al ejecutar <em>"INSERT INTO user (name,username,email,password,usertype,block) VALUES ('ERROL AUGUSTO IRAUSQUIN BRICENO','erroly','erroly@gmail.com','0569eb8055764093d0f05213ff903fd1:wqriXKawyo6MQ0CNp2nCXdebTb9y5IyJ','user',0)"</em>
[Tue, 19 Aug 14 11:44:28 -0430][ERROR] Duplicate entry 'erroly' for key 2 al ejecutar <em>"INSERT INTO user (name,username,email,password,usertype,block) VALUES ('ERROL AUGUSTO IRAUSQUIN BRICENO','erroly','erroly@gmail.com','a354312acdd16523a90fe32c8e51cd1d:hGkuiF7krklqah3JUwTXHHf4tuuZyuH1','user',0)"</em>
