[Thu, 27 Oct 16 13:52:02 -0400][ERROR] Duplicate entry 'mauricio' for key 2 al ejecutar <em>"INSERT INTO user (name,username,email,password,usertype,block) VALUES ('ANDRES JIMENEZ','mauricio','jimenezgandres@gmail.com','82728daf25f5f31801ab9a8dac5bc5f6:zHs7IeyQCwDTyEd9VtBgyYhw9RHqtJ1i','user',0)"</em>
[Thu, 27 Oct 16 18:40:01 -0400][ERROR] Duplicate entry 'Rubencho' for key 2 al ejecutar <em>"INSERT INTO user (name,username,email,password,usertype,block) VALUES ('Ruben Fernandez Perez','Rubencho','rubenfernandezp90@gmail.com','ab35c3e582670c549d7ca3bcb855ce75:EtK0sNXxNJQaBJ2JVhutHZVGWxGHr81n','user',0)"</em>
[Thu, 27 Oct 16 21:39:19 -0400][ERROR] Duplicate entry 'canamerok' for key 2 al ejecutar <em>"INSERT INTO user (name,username,email,password,usertype,block) VALUES ('Kerla Canamero Coronel','canamerok','canamerok@gmail.com','8a33475968ae15c4cf3e048193cf0592:IoP5iB2tPcGZqtZa6jteNgDkSiepFwTO','user',0)"</em>
[Thu, 27 Oct 16 21:41:18 -0400][ERROR] Duplicate entry 'canamerok@gmail.com' for key 3 al ejecutar <em>"INSERT INTO user (name,username,email,password,usertype,block) VALUES ('Kerla Cañamero Coronel','jesucristo','canamerok@gmail.com','2f81e6e699b5d7ed23b667253259dc2b:jDutpjSIa0kSLMppo34QlRxhCTmkndNY','user',0)"</em>
[Thu, 27 Oct 16 21:43:57 -0400][ERROR] Duplicate entry 'canamerok@gmail.com' for key 3 al ejecutar <em>"INSERT INTO user (name,username,email,password,usertype,block) VALUES ('Kerla Canamero C','Jesucristo','canamerok@gmail.com','63c762080ff510377adaa9bf42d8006c:uiz530Jpcxep7BeaqgwCy6zV7IBaW29p','user',0)"</em>
