[Fri, 24 Jul 15 10:01:49 -0430][ERROR] Duplicate entry 'redo2001' for key 2 al ejecutar <em>"INSERT INTO user (name,username,email,password,usertype,block) VALUES ('Ricardo Dias','redo2001','ricardodias0407@gmail.com','ba943bce54f8d53b22306cc941a162d8:uJ450QgSUTTXg32fI9ODR59uTxww6lYo','user',0)"</em>
[Fri, 24 Jul 15 17:36:07 -0430][ERROR] Duplicate entry 'jona1805' for key 2 al ejecutar <em>"INSERT INTO user (name,username,email,password,usertype,block) VALUES ('Jonathan Acuña ','jona1805','jonathanacunah@gmail.com','57b516d1ae9f76f353d8724ddb1b9d4a:lbHH2FKyGjtgBbxrlx6LRIxDdR6RgJFX','user',0)"</em>
[Fri, 24 Jul 15 20:35:54 -0430][ERROR] Duplicate entry 'rodriguez.arnoldo@gmail.com' for key 3 al ejecutar <em>"INSERT INTO user (name,username,email,password,usertype,block) VALUES ('Arnoldo Rodriguez','deaconrodriguez','rodriguez.arnoldo@gmail.com','5634c4b247dd9ad51e2673ec6d28c952:i0Aa1LxxDguESzYUICgFtMO9qYZtpLjR','user',0)"</em>
[Fri, 24 Jul 15 20:39:13 -0430][ERROR] Duplicate entry 'rodriguez.arnoldo@gmail.com' for key 3 al ejecutar <em>"INSERT INTO user (name,username,email,password,usertype,block) VALUES ('Arnoldo Rodriguez','deaconrodriguez','rodriguez.arnoldo@gmail.com','a135f0ef1857433c2e0a231b2ad76818:U8zkl35ouTrPdiA4Uk8SduOqdplYfPNW','user',0)"</em>
