[Tue, 27 Oct 15 13:01:47 -0430][ERROR] Duplicate entry 'raffaprieto' for key 2 al ejecutar <em>"INSERT INTO user (name,username,email,password,usertype,block) VALUES ('raffael roso','raffaprieto','raffaprieto@hotmail.com','7d7078fbf097398f10c11b16a07b2072:WzxemApLvM9NUl7fTCTFNWRqtdAbsSbc','user',0)"</em>
[Tue, 27 Oct 15 13:08:03 -0430][ERROR] Duplicate entry 'alejandrosos' for key 2 al ejecutar <em>"INSERT INTO user (name,username,email,password,usertype,block) VALUES ('Alejandro Sonnessa','alejandrosos','alejandrosos@hotmail.com','487df39dec75d3f509ae99b607c8232d:8UWYUJ4oUu7LKjs6ER0VraP0W1BPrjAd','user',0)"</em>
[Tue, 27 Oct 15 14:03:01 -0430][ERROR] Duplicate entry 'manug8a' for key 2 al ejecutar <em>"INSERT INTO user (name,username,email,password,usertype,block) VALUES ('manuel gonzalez','manug8a','manu.g8a@gmail.com','5a162867bec31968fccb8c8d4d8d78f4:FiWb4Uhq4OJAW2xSmilppZUGJQ3R02K2','user',0)"</em>
[Tue, 27 Oct 15 15:00:44 -0430][ERROR] Duplicate entry 'mapalarcon' for key 2 al ejecutar <em>"INSERT INTO user (name,username,email,password,usertype,block) VALUES ('Marco Antonio Pinto Alarcón','mapalarcon','mapalarcon@gmail.com','03bf5b4cef65306dc1da4eecf9348cf2:3h28sITosuNaOfvW8XpEyKg6TSWCoXVD','user',0)"</em>
[Tue, 27 Oct 15 15:03:36 -0430][ERROR] Duplicate entry 'mapalarcon' for key 2 al ejecutar <em>"INSERT INTO user (name,username,email,password,usertype,block) VALUES ('Marco Pinto','mapalarcon','mapalarcon@gmail.com','30ba963604b34fa66fda38dd4d938b40:SEIXC3jc31WSl0buKJFAaBVgLPdUyFlN','user',0)"</em>
[Tue, 27 Oct 15 15:07:46 -0430][ERROR] Duplicate entry 'mapalarcon' for key 2 al ejecutar <em>"INSERT INTO user (name,username,email,password,usertype,block) VALUES ('Marco Antonio Pinto','mapalarcon','mapalarcon@gmail.com','7085537a57fe6e0029eea0e51971ad6d:bqV9fV8D17alsRGvuY4UP5ojJSb9uix6','user',0)"</em>
