[Tue, 22 Sep 15 15:48:06 -0430][ERROR] Duplicate entry 'emimanya10' for key 2 al ejecutar <em>"INSERT INTO user (name,username,email,password,usertype,block) VALUES ('Emiliano Vazquez','emimanya10','emimanya10@gmail.com','3728b565a784ca7645e04b133e56ba9b:iunrbwyARbkrW2gjavSydRZfkK0fiMSt','user',0)"</em>
[Tue, 22 Sep 15 15:49:41 -0430][ERROR] Duplicate entry 'emimanya10' for key 2 al ejecutar <em>"INSERT INTO user (name,username,email,password,usertype,block) VALUES ('Emiliano Vazquez','emimanya10','emimanya10@gmail.com','f76b295e0a10f83df838039423830d4a:9mCZfaVEERcdQumCjjXVMtudi7bAUX4j','user',0)"</em>
[Tue, 22 Sep 15 16:01:00 -0430][ERROR] Duplicate entry 'emimanya10' for key 2 al ejecutar <em>"INSERT INTO user (name,username,email,password,usertype,block) VALUES ('Emiliano Vazquez','emimanya10','emimanya10@gmail.com','32394eb0f0cb62f4bebcd3df1ae20885:LsP1ek8XK9vcloxkvS2wQe0RTsXc7Wzg','user',0)"</em>
[Tue, 22 Sep 15 16:52:13 -0430][ERROR] Duplicate entry 'kike2302' for key 2 al ejecutar <em>"INSERT INTO user (name,username,email,password,usertype,block) VALUES ('ricardo chaumer','kike2302','hchaumer@tuvuelovip.com','09604ca4f3d89568c6e3ab2369162c25:808EVNz1n40Kxm0TahgbJ9vQo9rgnyGl','user',0)"</em>
[Tue, 22 Sep 15 16:59:51 -0430][ERROR] Duplicate entry 'kike2302' for key 2 al ejecutar <em>"INSERT INTO user (name,username,email,password,usertype,block) VALUES ('ricardo chaumer','kike2302','hchaumer@hotmail.com','778a6d44c70470f6e2f0fc7e1299eea6:9LNrboKVeTU3zgFeq2fZBgMm85HTFWar','user',0)"</em>
[Tue, 22 Sep 15 17:04:40 -0430][ERROR] Duplicate entry 'hchaumer@hotmail.com' for key 3 al ejecutar <em>"INSERT INTO user (name,username,email,password,usertype,block) VALUES ('ricardo luis chaumer','chaumer2302','hchaumer@hotmail.com','fc3e913b766862989686abbf9f6c722a:661JL3eyOF4XKGwVKsFgF5PWoKv2aC3A','user',0)"</em>
