[Mon, 08 Aug 16 13:10:11 -0400][ERROR] Duplicate entry 'arnoldov12' for key 2 al ejecutar <em>"INSERT INTO user (name,username,email,password,usertype,block) VALUES ('arnoldo Villavicencio','arnoldov12','arnoldovillavicencio012@gmail.com','e0bfd21b5fcf8d38ecfb9dddf1df349b:uIYnsppca3zAwiCHYRmYQjjj1qABHg2O','user',0)"</em>
[Mon, 08 Aug 16 14:58:46 -0400][ERROR] Duplicate entry 'GUZMANJOSENOEL' for key 2 al ejecutar <em>"INSERT INTO user (name,username,email,password,usertype,block) VALUES ('JOSE NOEL GUZMAN ZERPA','GUZMANJOSENOEL','GUZMANJOSENOEL@GMAIL.COM','3451e0568f9e2656435c39bdf4455c56:iZi9HLK2KDAnLGOS6oXb3jly6ZEyDlFJ','user',0)"</em>
[Mon, 08 Aug 16 14:58:48 -0400][ERROR] Duplicate entry 'GUZMANJOSENOEL' for key 2 al ejecutar <em>"INSERT INTO user (name,username,email,password,usertype,block) VALUES ('JOSE NOEL GUZMAN ZERPA','GUZMANJOSENOEL','GUZMANJOSENOEL@GMAIL.COM','9e7ab7c97f79861999ffd27eb87b94de:xVIX7cDlQsrmYgdeK7ykp73hvMa8cTXC','user',0)"</em>
