[Wed, 04 Nov 15 12:15:36 -0430][ERROR] Duplicate entry 'yormancp17@hotmail.com' for key 3 al ejecutar <em>"INSERT INTO user (name,username,email,password,usertype,block) VALUES ('YORMAN ISAAC  CEDEÑO PEÑA ','yormancp17','yormancp17@hotmail.com','87d32a529cc5f9a406df4d8396495c5c:0WCEg1yyxDIYItoExswWlQjO2geQ4IcI','user',0)"</em>
[Wed, 04 Nov 15 12:19:02 -0430][ERROR] Duplicate entry 'yormancp17@hotmail.com' for key 3 al ejecutar <em>"INSERT INTO user (name,username,email,password,usertype,block) VALUES ('yorman isaac  cedeño peña ','yormancp17','yormancp17@hotmail.com','5731e4fbc6e22751619d356696c2b88d:eD5NihnRsWy1Fu2UCIfNgUk9YpDBa8oC','user',0)"</em>
[Wed, 04 Nov 15 15:49:32 -0430][ERROR] Duplicate entry 'juanmbarretom@gmail.com' for key 3 al ejecutar <em>"INSERT INTO user (name,username,email,password,usertype,block) VALUES ('juan manuel barreto moniz','juamma92','juanmbarretom@gmail.com','58ac264afc6dcd598a1ab5c17e1c1afb:OM2UU3HkVEAZ0fnoMrz2RXt8uZVnbiSS','user',0)"</em>
