[Wed, 07 Jan 15 11:52:30 -0430][ERROR] Duplicate entry 'angelrojas_94@hotmail.com' for key 3 al ejecutar <em>"INSERT INTO user (name,username,email,password,usertype,block) VALUES ('angel rojas','ganjesus','angelrojas_94@hotmail.com','475591f8028074d1d2fe1394b85935a5:Mz7Nv5IEVVu9EWl7pKMTCoYUvmSkZXVW','user',0)"</em>
[Wed, 07 Jan 15 11:56:11 -0430][ERROR] Duplicate entry 'angelrojas_94@hotmail.com' for key 3 al ejecutar <em>"INSERT INTO user (name,username,email,password,usertype,block) VALUES ('angel gabriel rojas borges','ganjesus','angelrojas_94@hotmail.com','7722a3bf4bba2e662638c7545fa76e0b:CL6EX17B1tSXegR6Iuw3ox4tWLOUV93t','user',0)"</em>
[Wed, 07 Jan 15 17:49:19 -0430][ERROR] Duplicate entry 'andresurbina ' for key 2 al ejecutar <em>"INSERT INTO user (name,username,email,password,usertype,block) VALUES ('Andres  Urbina','andresurbina ','andresurbina08@gmail.com ','fefe775ebf477271cea98e1240c2fdde:6vlH6HiND37AvemzfG2pzgw0zYpPrIpo','user',0)"</em>
