[Mon, 14 Sep 15 15:22:51 -0430][ERROR] Duplicate entry 'Ferboarte' for key 2 al ejecutar <em>"INSERT INTO user (name,username,email,password,usertype,block) VALUES ('Fernando Duarte','Ferboarte','fjdd1991@gmail.com','d5e9816c19bfd1db2a2a1879398ca69d:jjmGaO0zu1YKVBDtm0dRPW6Fz60DwudN','user',0)"</em>
[Mon, 14 Sep 15 19:25:34 -0430][ERROR] Duplicate entry 'lmunoz' for key 2 al ejecutar <em>"INSERT INTO user (name,username,email,password,usertype,block) VALUES ('Lizardo Muñoz','lmunoz','lizardo19_89@hotmail.com','bdc82041b2f7b54cadc7b9a4551e063f:XqlD4CNguer3X8Lznv4iOHOfRfFh12V8','user',0)"</em>
[Mon, 14 Sep 15 19:33:10 -0430][ERROR] Duplicate entry 'lmunoz' for key 2 al ejecutar <em>"INSERT INTO user (name,username,email,password,usertype,block) VALUES ('Lizardo Miguel Muñoz Sarmiento','lmunoz','lizardo19_89@hotmail.com','4451de234ae89898409c90c5183e41da:nuPL1wRnVXz1Vegov1EZg0XJ6MNBtG5Y','user',0)"</em>
