[Wed, 18 Feb 15 12:48:31 -0430][ERROR] Duplicate entry 'omarnino' for key 2 al ejecutar <em>"INSERT INTO user (name,username,email,password,usertype,block) VALUES ('Omar Niño Bezara','omarnino','omarninob@gmail.com','84cc4881bad22092240b7ef61e670867:L5p5N7BLrXWGfoCnER20FHFC3aCTmX3d','user',0)"</em>
[Wed, 18 Feb 15 14:58:07 -0430][ERROR] Duplicate entry 'Tatasaavedra' for key 2 al ejecutar <em>"INSERT INTO user (name,username,email,password,usertype,block) VALUES ('Maria Teresa Saavedra de Salas','Tatasaavedra','tatasaavedra@hotmail.com','55def1498aaa243ebd167311b2ea042a:BlA2Z4SlkL7gjqwf9b5nx7jiwj7rQEXZ','user',0)"</em>
[Wed, 18 Feb 15 16:27:32 -0430][ERROR] Duplicate entry 'jesus87jeb' for key 2 al ejecutar <em>"INSERT INTO user (name,username,email,password,usertype,block) VALUES ('JESUS BARROS','jesus87jeb','JESUS87JEB@GMAIL.COM','a3e86ed99ebbadf2533a6d4f4db544b2:YlDB4nFq2sewo32pjj2qtycf9rJyG7FQ','user',0)"</em>
