[Fri, 13 Nov 15 10:27:29 -0430][ERROR] Duplicate entry 'JrCaldeira' for key 2 al ejecutar <em>"INSERT INTO user (name,username,email,password,usertype,block) VALUES ('Jackson Ruben Caldeira Caldeira','JrCaldeira','Gulfstreampark@Gmail.com','2196044c63eb865fe41f0c5837a52077:bxv8ndWm0C6RuX95vxyKxskrv5fVnoXO','user',0)"</em>
[Fri, 13 Nov 15 10:30:07 -0430][ERROR] Duplicate entry 'JrCaldeira' for key 2 al ejecutar <em>"INSERT INTO user (name,username,email,password,usertype,block) VALUES ('Jackson Caldeira','JrCaldeira','Gulfstreampark@Gmail.com','d193d3862ff5010a0b2f6ba154b56cdb:a4t7Pjaodlnjj7D6ZK02tXRdVKDGEmYF','user',0)"</em>
[Fri, 13 Nov 15 17:44:44 -0430][ERROR] Duplicate entry 'carloseduardodeluca@gmail.com' for key 3 al ejecutar <em>"INSERT INTO user (name,username,email,password,usertype,block) VALUES ('carlos eduardo de luca rodriguez','carlosedr','carloseduardodeluca@gmail.com','9e372b3a8767a214f9005adf774f2c08:88bjLKGrlaSeAC1wnuNVGVmgyF0D9SlF','user',0)"</em>
