[Wed, 24 Feb 16 15:45:48 -0430][ERROR] Duplicate entry 'dabc1995@hotmail.com' for key 3 al ejecutar <em>"INSERT INTO user (name,username,email,password,usertype,block) VALUES ('Daniel Briceno','Daniel1729','dabc1995@hotmail.com','4e4094c08ba51fcef5407cc8f3252e6d:APseMaofM675Fn8zhXpdg3IXqUV9AjnJ','user',0)"</em>
[Wed, 24 Feb 16 15:49:47 -0430][ERROR] Duplicate entry 'dabc1995@hotmail.com' for key 3 al ejecutar <em>"INSERT INTO user (name,username,email,password,usertype,block) VALUES ('daniel briceno','brando1729','dabc1995@hotmail.com','b8e926ced16291ec0dba11c324d27392:2NQZyRCIuzxiD9sZjBzLXJ7hK7LAWIUe','user',0)"</em>
[Wed, 24 Feb 16 15:52:59 -0430][ERROR] Duplicate entry 'dabc1995@hotmail.com' for key 3 al ejecutar <em>"INSERT INTO user (name,username,email,password,usertype,block) VALUES ('Daniel Briceno','Brando1729','dabc1995@hotmail.com','4fe4e00d9d9eb8fb93f0fed64089bbff:eJvrc2JR8jn2XXS8n5052EI1WvRbPqTk','user',0)"</em>
