[Wed, 25 Feb 15 10:41:00 -0430][ERROR] Duplicate entry 'edgar.fuentes10@gmail.com' for key 3 al ejecutar <em>"INSERT INTO user (name,username,email,password,usertype,block) VALUES ('edgar fuentes','fedgar48','edgar.fuentes10@gmail.com','c203809860247951e568d99c013680b0:uQzHnQ9H84KQ3rnDNd6sjP4jw03MpaGO','user',0)"</em>
[Wed, 25 Feb 15 21:50:16 -0430][ERROR] Duplicate entry 'rfurelli' for key 2 al ejecutar <em>"INSERT INTO user (name,username,email,password,usertype,block) VALUES ('Rocco Furelli','rfurelli','rfurelli@hotmail.com','13a4c8be8880746ba202a58ef14a0f62:U8SUjDNtxfLAV8U6iWrvucqwYF7Tgdar','user',0)"</em>
[Wed, 25 Feb 15 21:51:13 -0430][ERROR] Duplicate entry 'rfurelli' for key 2 al ejecutar <em>"INSERT INTO user (name,username,email,password,usertype,block) VALUES ('Rocco Furelli','rfurelli','rfurelli@hotmail.com','72d7b9c1e91ba0b6dcca89f897c13981:9V4BEnd1XDCsdoRLpNre35CYaNmsg7G9','user',0)"</em>
[Wed, 25 Feb 15 21:54:40 -0430][ERROR] Duplicate entry 'rfurelli' for key 2 al ejecutar <em>"INSERT INTO user (name,username,email,password,usertype,block) VALUES ('Rocco Furelli','rfurelli','rfurelli@hotmail.com','59dfe8f0c676de54ea2c8097414f61d7:EWjOMdPkmMjGAbB3vQwGV4Kj38L8sr0C','user',0)"</em>
