[Mon, 30 May 16 12:55:31 -0430][ERROR] Duplicate entry 'alaamansour@hotmail.es' for key 3 al ejecutar <em>"INSERT INTO user (name,username,email,password,usertype,block) VALUES ('ala mansour','alamansour','alaamansour@hotmail.es','0b32dd5e330c5806413e0427f4745828:ujyjrIOGr3pRd1abf4hcXyARi3SpBh49','user',0)"</em>
[Mon, 30 May 16 12:56:58 -0430][ERROR] Duplicate entry 'alaamansour.96f@gmail.com' for key 3 al ejecutar <em>"INSERT INTO user (name,username,email,password,usertype,block) VALUES ('ala mansour','alaboy96','alaamansour.96f@gmail.com','f2637c8ffe586e8cd3fd56cdcda5f06f:3qF65EOSP3oAPn5bGMC0LyeOBfwyhwZX','user',0)"</em>
[Mon, 30 May 16 14:01:51 -0430][ERROR] Duplicate entry 'majzoub' for key 2 al ejecutar <em>"INSERT INTO user (name,username,email,password,usertype,block) VALUES ('Ali Majzoub','majzoub','alimultiseguros@gmail.com','54607f3f8c16c9685abfada25bb81e28:gkTaQhH7C06y1CLwapNILGG7yldUErwA','user',0)"</em>
